{
  "components": {

    "schemas": {

      "accountExists": {
        "type": "object",
        "properties": {
          "response": {
            "type": "boolean"
          },
          "meta": {
            "$ref": "base.json#/components/schemas/meta-response"
          }
        }
      },
      "query-account": {
        "type": "object",
        "properties": {
          "query": {
            "type": "object",
            "properties": {
              "accounts": {
                "type": "array",
                "items": {
                  "$ref": "base.json#/components/schemas/query-operator"
                },
                "minItems": 0
              }
            }
          },
          "limit": {
            "$ref": "base.json#/components/schemas/limit"
          },
          "skip": {
            "$ref": "base.json#/components/schemas/skip"
          }
        }
      },
      "Account-data-settings": {
        "type": "object",
        "properties": {
          "time_zone": {
            "type": "string"
          }
        }
      },
      "Account-data-security": {
        "type": "object",
        "properties": {
          "token": {
            "type": "string",
            "description": "Account's private key encoded with account's password. Use ZIMT SDK sdk.utils.encrypt and sdk.utils.decrypt to handle token encryption/decryption or your custom methods since token encryption/decryption is only done client side for this token."
          }
        },
        "additionalProperties": false
      },
      "Account-data": {
        "type": "object",
        "properties": {
          "full_name": {
            "type": "string"
          },
          "email": {
            "type": "string",
            "format": "email"
          },
          "address": {
            "$ref": "base.json#/components/schemas/address"
          },
          "settings": {
            "$ref": "#/components/schemas/Account-data-settings"
          },
          "security": {
            "$ref": "#/components/schemas/Account-data-security"
          },
          "active": {
            "type": "boolean"
          }
        },
        "required": [
          "full_name",
          "email",
          "address"
        ]
      },
      "Account-Create-data": {
        "type": "object",
        "properties": {
          "full_name": {
            "type": "string"
          },
          "email": {
            "type": "string",
            "format": "email"
          },
          "address": {
            "$ref": "base.json#/components/schemas/address"
          },
          "security": {
            "$ref": "#/components/schemas/Account-data-security"
          }
        },
        "required": [
          "full_name",
          "email",
          "address",
          "security"
        ]
      },
      "Account": {
        "type": "object",
        "properties": {
          "id": {
            "$ref": "base.json#/components/schemas/id"
          },
          "object": {
              "type": "object",
              "properties": {
                  "meta": {
                        "$ref": "base.json#/components/schemas/object-meta-simple"
                    },
                    "signature": {
                        "$ref": "base.json#/components/schemas/signature"
                    }
              },
              "additionalProperties": false
          },
          "data": {
            "$ref": "#/components/schemas/Account-data"
          },
          "receipt": {
            "$ref": "base.json#/components/schemas/receipt"
          }
        },
        "required": [
          "id",
          "object",
          "data",
          "receipt"
        ],
        "additionalProperties": false
      },
      "Account-update": {
        "type": "object",
        "properties": {
          "data": {
            "type": "object",
            "properties": {
              "full_name": {
                "type": "string"
              },
              "email": {
                "type": "string",
                "format": "email"
              },
              "security": {
                "$ref": "#/components/schemas/Account-data-security"
              }
            },
            "additionalProperties": false
          }
        },
        "additionalProperties": false,
        "required": [
          "data"
        ]
      },
      "Account-me": {
        "type": "object",
        "properties": {
          "id": {
            "$ref": "base.json#/components/schemas/id"
          },
          "object": {
              "type": "object",
              "properties": {
                  "meta": {
                        "$ref": "base.json#/components/schemas/object-meta-simple"
                    },
                    "signature": {
                        "$ref": "base.json#/components/schemas/signature"
                    }
              },
              "additionalProperties": false
          },
          "data": {
            "type": "object",
            "properties": {
              "full_name": {
                "type": "string"
              },
              "email": {
                "type": "string",
                "format": "email"
              },
              "address": {
                "$ref": "base.json#/components/schemas/address"
              },
              "settings": {
                "$ref": "#/components/schemas/Account-data-settings"
              },
              "owner": {
                "type": "boolean"
              },
              "super_admin": {
                "type": "boolean"
              },
              "admin": {
                "type": "boolean"
              }
            },
            "required": [
              "full_name",
              "email",
              "address",
              "owner",
              "super_admin",
              "admin"
            ]
          },
          "receipt": {
            "$ref": "base.json#/components/schemas/receipt"
          }
        },
        "required": [
          "id",
          "object",
          "data",
          "receipt"
        ],
        "additionalProperties": false
      },
      "Accounts": {
        "type": "object",
        "properties": {
          "response": {
            "type": "array",
            "minItems": 0,
            "maxItems": 50,
            "items": {
              "$ref": "#/components/schemas/Account"
            }
          },
          "meta": {
            "$ref": "base.json#/components/schemas/meta-response"
          },
          "pagination": {
            "$ref": "base.json#/components/schemas/pagination-response"
          }
        }
      }

    },
    "examples": {

      "accountExists": {
        "address": "0x627969CD9Ef88bA7e61694947020540d7eD0001d",
        "email": "john@gmail.com"
      },
      "query-account": {
        "query": {
          "accounts": [{
            "field": "object.data.full_name",
            "operator": "starts-with",
            "value": "John"
          }]
        },
        "limit": 45,
        "skip": "30"
      },
      "Account": {
        "response": {
          "id": "0x1512258c1a082a1148e655cf4abf13b914e31e7e485191c2b6b5ee466e03c951",
          "object": {
              "meta": {
                    "created_by": "0x8752F61635543a870826D9F4CA20a9D1F3934079",
                    "timestamp": "2020-02-10T19:16:13Z"
                },
                "signature": "0xed4f59dbd23ac9ea359f3b9215eca3ceb34e08e29b1f704fa198468cae08f9f0016e..."
          },
          "data": {
            "full_name": "John Doe",
            "email": "john@gmail.com",
            "address": "0x627969CD9Ef88bA7e61694947020540d7eD0001d",
            "settings": { },
            "active": true
          },
          "receipt": {
            "received_at": 1579967810
          }
        },
        "meta": {
          "code": 200,
          "message": "Ok"
        }
      },
      "Account-update": {
        "data": {
          "full_name": "John Doe",
          "email": "john@gmail.com",
          "security": {
            "token": "a32188sa76748123ea..."
          },
          "active": true
        }
      },
      "Account-me": {
        "response": {
          "id": "0x1512258c1a082a1148e655cf4abf13b914e31e7e485191c2b6b5ee466e03c951",
          "object": {
              "meta": {
                    "created_by": "0x8752F61635543a870826D9F4CA20a9D1F3934079",
                    "timestamp": "2020-02-10T19:16:13Z"
                },
                "signature": "0xed4f59dbd23ac9ea359f3b9215eca3ceb34e08e29b1f704fa198468cae08f9f0016e..."
          },
          "data": {
            "full_name": "John Doe",
            "email": "john@gmail.com",
            "address": "0x627969CD9Ef88bA7e61694947020540d7eD0001d",
            "settings": {
              "time_zone": "Europe/London"
            },
            "owner": true,
            "admin": true,
            "super_admin": true,
            "active": true
          },
          "receipt": {
            "received_at": 1579967810
          }
        },
        "meta": {
          "code": 200,
          "message": "Ok"
        }
      },
      "Account-settings": {
        "response": {
            "id": "0x1512258c1a082a1148e655cf4abf13b914e31e7e485191c2b6b5ee466e03c951",
            "time_zone": "Europe/London",
            "apps": {},
            "notifications": {}
        },
        "meta": {
          "code": 200,
          "message": "Ok"
        }
      },
      "Accounts": {
        "response": [{
          "id": "0x1512258c1a082a1148e655cf4abf13b914e31e7e485191c2b6b5ee466e03c951",
          "object": {
              "meta": {
                    "created_by": "0x8752F61635543a870826D9F4CA20a9D1F3934079",
                    "timestamp": "2020-02-10T19:16:13Z"
                },
                "signature": "0xed4f59dbd23ac9ea359f3b9215eca3ceb34e08e29b1f704fa198468cae08f9f0016e..."
          },
          "data": {
            "full_name": "John Doe",
            "email": "john@gmail.com",
            "address": "0x627969CD9Ef88bA7e61694947020540d7eD0001d",
            "settings": {
              "time_zone": "Europe/London"
            },
            "active": true
          },
          "receipt": {
            "received_at": 1579967810
          }
        }],
        "meta": {
          "code": 200,
          "message": "Ok"
        },
        "pagination": {
          "limit": 30,
          "skip": 30,
          "total": 120,
          "next": "eyJyZWNlaXB0LnJlY2VpdmVkX2F0IjoxNjE1MjQ4ODEyfQ==",
          "previous": "eyJyZWNlaXB0LnJlY2VpdmVkX2F0IjoxNjE1MjQ4ODEyfQ==",
          "hasNext": true,
          "hasPrevious": false
        }
      }

    },
    "parameters": {

      "id-account": {
        "name": "id",
        "description": "ID of an account",
        "in": "path",
        "schema": {
          "$ref": "base.json#/components/schemas/id"
        }
      }

    },

    "responses": {

      "Account": {
        "description": "Account",
        "content": {
          "application/json": {
            "schema": {
              "$ref": "#/components/schemas/Account"
            },
            "example": {
              "$ref": "#/components/examples/Account"
            }
          }
        }
      },
      "Account-me": {
        "description": "Account",
        "content": {
          "application/json": {
            "schema": {
              "$ref": "#/components/schemas/Account-me"
            },
            "example": {
              "$ref": "#/components/examples/Account-me"
            }
          }
        }
      },
      "Account-settings": {
        "description": "Account settings",
        "content": {
          "application/json": {
            "schema": {
              "$ref": "#/components/schemas/Account-data-settings"
            },
            "example": {
              "$ref": "#/components/examples/Account-settings"
            }
          }
        }
      },
      "Accounts": {
        "description": "Account results",
        "content": {
          "application/json": {
            "schema": {
              "$ref": "#/components/schemas/Accounts"
            },
            "example": {
              "$ref": "#/components/examples/Accounts"
            }
          }
        }
      }

    },
    "requestBodies": {

      "accountExists": {
        "description": "Check if account exists",
        "content": {
          "application/json": {
            "schema": {
              "type": "object",
              "properties": {
                "address": {
                  "type": "string"
                },
                "email": {
                  "type": "string",
                  "format": "email"
                }
              }
            },
            "example": {
              "$ref": "#/components/examples/accountExists"
            }
          }
        }
      },
      "search-account": {
        "description": "Search query",
        "content": {
          "application/json": {
            "schema": {
              "$ref": "#/components/schemas/query-account"
            },
            "example": {
              "$ref": "#/components/examples/query-account"
            }
          }
        }
      },
      "Account-update": {
        "description": "Account update",
        "content": {
          "application/json": {
            "schema": {
              "$ref": "#/components/schemas/Account-update"
            },
            "example": {
              "$ref": "#/components/examples/Account-update"
            }
          }
        }
      }

    }

  }
}
