{
  "components": {

    "schemas": {

      "query-api-keys": {
        "type": "object",
        "properties": {
          "query": {
            "type": "object",
            "properties": {
              "apiKeys": {
                "type": "array",
                "items": {
                  "$ref": "base.json#/components/schemas/query-operator"
                },
                "minItems": 0
              }
            }
          },
          "limit": {
            "$ref": "base.json#/components/schemas/limit"
          },
          "skip": {
            "$ref": "base.json#/components/schemas/skip"
          }
        }
      },
      "APIkey-data-rules": {
        "type": "object",
        "properties": {
          "http_referrers": {
            "type": "array",
            "items": {
              "type": "object",
              "properties": {
                "value": {
                  "type": "string"
                }
              },
              "additionalProperties": false
            }
          },
          "ip_addresses": {
            "type": "array",
            "items": {
              "type": "object",
              "properties": {
                "value": {
                  "type": "string"
                }
              },
              "additionalProperties": false
            }
          }
        },
        "additionalProperties": false
      },
      "APIkey-data-keys": {
        "type": "object",
        "properties": {
          "private_key": {
            "$ref": "base.json#/components/schemas/private_key"
          },
          "address": {
            "$ref": "base.json#/components/schemas/address"
          }
        },
        "additionalProperties": false
      },
      "APIkey-data": {
        "type": "object",
        "properties": {
          "name": {
            "type": "string"
          },
          "description": {
            "type": "string"
          },
          "active": {
            "type": "boolean"
          },
          "private": {
            "type": "boolean"
          },
          "rules": {
            "$ref": "#/components/schemas/APIkey-data-rules"
          },
          "keys": {
            "$ref": "#/components/schemas/APIkey-data-keys"
          }
        },
        "required": [
          "name"
        ]
      },
      "APIkey-Create-data": {
        "type": "object",
        "properties": {
          "name": {
            "type": "string"
          },
          "description": {
            "type": "string"
          },
          "active": {
            "type": "boolean"
          },
          "rules": {
            "$ref": "#/components/schemas/APIkey-data-rules"
          }
        },
        "required": [
          "name"
        ]
      },
      "APIkey-Create": {
        "type": "object",
        "properties": {
          "object": {
            "$ref": "base.json#/components/schemas/object-simple"
          },
          "data": {
            "$ref": "#/components/schemas/APIkey-Create-data"
          }
        },
        "required": [
          "object",
          "data"
        ]
      },
      "APIkey": {
        "type": "object",
        "properties": {
          "id": {
            "$ref": "base.json#/components/schemas/id"
          },
          "object": {
            "$ref": "base.json#/components/schemas/object-simple"
          },
          "data": {
            "$ref": "#/components/schemas/APIkey-data"
          },
          "receipt": {
            "$ref": "base.json#/components/schemas/receipt"
          },
          "proof_locations": {
            "$ref": "base.json#/components/schemas/proof_locations"
          }
        },
        "required": [
          "id",
          "object",
          "data",
          "receipt",
          "proof_locations"
        ],
        "additionalProperties": false
      },
      "APIkey-update": {
        "type": "object",
        "properties": {
          "data": {
            "type": "object",
            "properties": {
              "name": {
                "type": "string"
              },
              "description": {
                "type": "string"
              },
              "active": {
                "type": "boolean"
              },
              "private": {
                "type": "boolean"
              },
              "rules": {
                "$ref": "#/components/schemas/APIkey-data-rules"
              }
            },
            "additionalProperties": false
          }
        },
        "additionalProperties": false,
        "required": [
          "data"
        ]
      },
      "APIkeys": {
        "type": "object",
        "properties": {
          "response": {
            "type": "array",
            "minItems": 0,
            "maxItems": 50,
            "items": {
              "$ref": "#/components/schemas/APIkey"
            }
          },
          "meta": {
            "$ref": "base.json#/components/schemas/meta-response"
          },
          "pagination": {
            "$ref": "base.json#/components/schemas/pagination-response"
          }
        }
      }

    },
    "examples": {

      "query-api-keys": {
        "query": {
          "apiKeys": [{
            "field": "data.name",
            "operator": "starts-with",
            "value": "Developer key"
          }]
        },
        "limit": 45,
        "skip": "30"
      },
      "APIkey": {
        "response": {
          "id": "0x1512258c1a082a1148e655cf4abf13b914e31e7e485191c2b6b5ee466e03c951",
          "object": {
              "meta": {
                    "created_by": "0x8752F61635543a870826D9F4CA20a9D1F3934079",
                    "timestamp": "2020-02-10T19:16:13Z"
                },
                "signature": "0xed4f59dbd23ac9ea359f3b9215eca3ceb34e08e29b1f704fa198468cae08f9f0016e..."
          },
          "data": {
            "name": "Developer key",
            "description": "Developer API key",
            "rules": {
              "http_referrers": [
                { "value": "website.com" }
              ]
            },
            "keys": {
              "address": "0x4DC2f66Ea6f7Cd898342378e514cBDAD9dE5CC1B",
              "private_key": "0x14fbd74c7b5bed4109496f7df98a61ea11775edbac3bf203ac1f6cfc8daa999f"
            },
            "active": true,
            "private": false
          },
          "receipt": {
            "received_at": 1579967810
          },
          "proof_locations": [
            {
                "type": "bundle",
                "bundle": {
                    "id": "0x1512258c1a082a1148e655cf4abf13b914e31e7e485191c2b6b5ee466e03c951"
                },
                "strategy": {
                    "id": "0x1512258c1a082a1148e655cf4abf13b914e31e7e485191c2b6b5ee466e03c951",
                    "name": "Default all global"
                }
            }
          ]
        },
        "meta": {
          "code": 200,
          "message": "Ok"
        }
      },
      "APIkey-Create": {
        "object": {
            "meta": {
                "created_by": "0x8752F61635543a870826D9F4CA20a9D1F3934079",
                "timestamp": "2020-02-10T19:16:13Z"
            },
            "signature": "0xed4f59dbd23ac9ea359f3b9215eca3ceb34e08e29b1f704fa198468cae08f9f0016e..."
        },
        "data": {
          "name": "Developer key",
          "description": "Developer API key",
          "rules": {
            "http_referrers": [
              { "value": "website.com" }
            ]
          }
        }
      },
      "APIkey-update": {
        "data": {
          "active": false
        }
      },
      "APIkeys": {
        "response": [{
          "id": "0x1512258c1a082a1148e655cf4abf13b914e31e7e485191c2b6b5ee466e03c951",
          "object": {
              "meta": {
                    "created_by": "0x8752F61635543a870826D9F4CA20a9D1F3934079",
                    "timestamp": "2020-02-10T19:16:13Z"
                },
                "signature": "0xed4f59dbd23ac9ea359f3b9215eca3ceb34e08e29b1f704fa198468cae08f9f0016e..."
          },
          "data": {
            "name": "Developer key",
            "description": "Developer API key",
            "rules": {
              "http_referrers": [
                { "value": "website.com" }
              ]
            },
            "keys": {
              "address": "0x4DC2f66Ea6f7Cd898342378e514cBDAD9dE5CC1B",
              "private_key": "0x14fbd74c7b5bed4109496f7df98a61ea11775edbac3bf203ac1f6cfc8daa999f"
            },
            "active": true,
            "private": false
          },
          "receipt": {
            "received_at": 1579967810
          },
          "proof_locations": [
            {
                "type": "bundle",
                "bundle": {
                    "id": "0x1512258c1a082a1148e655cf4abf13b914e31e7e485191c2b6b5ee466e03c951"
                },
                "strategy": {
                    "id": "0x1512258c1a082a1148e655cf4abf13b914e31e7e485191c2b6b5ee466e03c951",
                    "name": "Default all global"
                }
            }
          ]
        }],
        "meta": {
          "code": 200,
          "message": "Ok"
        },
        "pagination": {
          "limit": 30,
          "skip": 30,
          "total": 120,
          "next": "eyJyZWNlaXB0LnJlY2VpdmVkX2F0IjoxNjE1MjQ4ODEyfQ==",
          "previous": "eyJyZWNlaXB0LnJlY2VpdmVkX2F0IjoxNjE1MjQ4ODEyfQ==",
          "hasNext": true,
          "hasPrevious": false
        }
      }

    },
    "parameters": {

      "id-api-key": {
        "name": "id",
        "description": "ID of an API key",
        "in": "path",
        "schema": {
          "$ref": "base.json#/components/schemas/id"
        }
      }

    },

    "responses": {

      "APIkey": {
        "description": "APIkey result",
        "content": {
          "application/json": {
            "schema": {
              "$ref": "#/components/schemas/APIkey"
            },
            "example": {
              "$ref": "#/components/examples/APIkey"
            }
          }
        }
      },
      "APIkeys": {
        "description": "APIkey results",
        "content": {
          "application/json": {
            "schema": {
              "$ref": "#/components/schemas/APIkeys"
            },
            "example": {
              "$ref": "#/components/examples/APIkeys"
            }
          }
        }
      }

    },
    "requestBodies": {

      "search-api-keys": {
        "description": "Search query",
        "content": {
          "application/json": {
            "schema": {
              "$ref": "#/components/schemas/query-api-keys"
            },
            "example": {
              "$ref": "#/components/examples/query-api-keys"
            }
          }
        }
      },
      "APIkey-Create": {
        "description": "APIkey create",
        "content": {
          "application/json": {
            "schema": {
              "$ref": "#/components/schemas/APIkey-Create"
            },
            "example": {
              "$ref": "#/components/examples/APIkey-Create"
            }
          }
        }
      },
      "APIkey-update": {
        "description": "APIkey update",
        "content": {
          "application/json": {
            "schema": {
              "$ref": "#/components/schemas/APIkey-update"
            },
            "example": {
              "$ref": "#/components/examples/APIkey-update"
            }
          }
        }
      }

    }

  }
}
