{
  "components": {

    "schemas": {

      "query-hook": {
        "type": "object",
        "properties": {
          "query": {
            "type": "object",
            "properties": {
              "hooks": {
                "type": "array",
                "items": {
                  "$ref": "base.json#/components/schemas/query-operator"
                },
                "minItems": 0
              }
            }
          },
          "limit": {
            "$ref": "base.json#/components/schemas/limit"
          },
          "skip": {
            "$ref": "base.json#/components/schemas/skip"
          }
        }
      },
      "Hook-data-services": {
        "type": "array",
        "items": {
          "type": "object",
          "properties": {
            "id": {
              "type": "string"
            },
            "name": {
              "type": "string"
            }
          },
          "additionalProperties": false,
          "required": [
            "id"
          ]
        },
        "additionalItems": false
      },
      "Hook-data-settings": {
        "type": "object",
        "properties": {
          "object": {
            "type": "string",
            "enum": ["asset", "event", "document"]
          },
          "action": {
            "type": "string",
            "enum": ["create", "get", "get-many", "edit"]
          },
          "send": {
            "type": "string",
            "enum": ["id", "receipt", "object"]
          },
          "rules": {
            "$ref": "permissions.json#/components/schemas/Permission-data-resources"
          }
        },
        "additionalProperties": false,
        "required": [
          "object",
          "action",
          "send"
        ]
      },
      "Hook-data-app": {
        "type": "object" ,
        "properties": {
            "id": {"type": "string", "description": "Organization app ID"},
            "name": {"type": "string", "description": "Organization app name"}
        },
        "required": ["id"]
      },
      "Hook-data-id": { "type": "id", "description": "Custom ID assigned to a hook, related to integrated app hook is from. Used so it can be automatically updated on integrated app update." },
      "Hook-data": {
        "type": "object",
        "properties": {
          "name": {
            "type": "string"
          },
          "description": {
            "type": "string"
          },
          "services": {
            "$ref": "#/components/schemas/Hook-data-services"
          },
          "settings": {
            "$ref": "#/components/schemas/Hook-data-settings"
          },
          "app": {
            "$ref": "#/components/schemas/Hook-data-app"
          },
          "id": {
            "$ref": "#/components/schemas/Hook-data-id"
          }
        },
        "required": [
          "name",
          "services",
          "settings"
        ]
      },
      "Hook-Create": {
        "type": "object",
        "properties": {
          "object": {
            "$ref": "base.json#/components/schemas/object-simple"
          },
          "data": {
            "$ref": "#/components/schemas/Hook-data"
          }
        },
        "required": [
          "object",
          "data"
        ]
      },
      "Hook": {
        "type": "object",
        "properties": {
          "id": {
            "$ref": "base.json#/components/schemas/id"
          },
          "object": {
              "type": "object",
              "properties": {
                  "meta": {
                        "$ref": "base.json#/components/schemas/object-meta-simple"
                    },
                    "signature": {
                        "$ref": "base.json#/components/schemas/signature"
                    }
              },
              "additionalProperties": false
          },
          "data": {
            "$ref": "#/components/schemas/Hook-data"
          },
          "receipt": {
            "$ref": "base.json#/components/schemas/receipt"
          }
        },
        "required": [
          "id",
          "object",
          "data",
          "receipt"
        ],
        "additionalProperties": false
      },
      "Hooks": {
        "type": "object",
        "properties": {
          "response": {
            "type": "array",
            "minItems": 0,
            "maxItems": 50,
            "items": {
              "$ref": "#/components/schemas/Hook"
            }
          },
          "meta": {
            "$ref": "base.json#/components/schemas/meta-response"
          },
          "pagination": {
            "$ref": "base.json#/components/schemas/pagination-response"
          }
        }
      }

    },
    "examples": {

      "query-hook": {
        "query": {
          "hooks": [{
            "field": "data.name",
            "operator": "starts-with",
            "value": "Hook 1"
          }]
        },
        "limit": 45,
        "skip": 30
      },
      "Hook-Create": {
        "object": {
          "meta": {
            "created_by": "0x678b3c5090B25b3a63120CF0218750886e37A96E"
          },
          "signature": "0xed4f59dbd23ac9ea359f3b9215eca3ceb34e08e29b1f704fa198468cae08f9f0016e..."
        },
        "data": {
          "name": "Hook 1",
          "services": [{
            "id": "0x1512258c1a082a1148e655cf4abf13b914e31e7e485191c2b6b5ee466e03c951",
            "name": "Service 1"
          }],
          "settings": {
            "object": "event",
            "action": "create",
            "send": "id",
            "rules": {
              "events": [{
                "field": "object.data.tag",
                "operator": "equal",
                "value": "tag1"
              }]
            }
          }
        }
      },
      "Hook": {
        "response": {
          "id": "0x1512258c1a082a1148e655cf4abf13b914e31e7e485191c2b6b5ee466e03c951",
          "object": {
              "meta": {
                    "created_by": "0x8752F61635543a870826D9F4CA20a9D1F3934079",
                    "timestamp": "2020-02-10T19:16:13Z"
                },
                "signature": "0xed4f59dbd23ac9ea359f3b9215eca3ceb34e08e29b1f704fa198468cae08f9f0016e..."
          },
          "data": {
            "name": "Hook 1",
            "services": [{
              "id": "0x1512258c1a082a1148e655cf4abf13b914e31e7e485191c2b6b5ee466e03c951",
              "name": "Service 1"
            }],
            "settings": {
              "object": "event",
              "action": "create",
              "send": "id",
              "rules": {
                "events": [{
                  "field": "object.data.tag",
                  "operator": "equal",
                  "value": "tag1"
                }]
              }
            }
          },
          "receipt": {
            "received_at": 1579967810
          }
        },
        "meta": {
          "code": 200,
          "message": "Ok"
        }
      },
      "Hook-update": {
        "data": {
          "name": "Hook (edited)"
        }
      },
      "Hooks": {
        "response": [{
          "id": "0x1512258c1a082a1148e655cf4abf13b914e31e7e485191c2b6b5ee466e03c951",
          "object": {
              "meta": {
                    "created_by": "0x8752F61635543a870826D9F4CA20a9D1F3934079",
                    "timestamp": "2020-02-10T19:16:13Z"
                },
                "signature": "0xed4f59dbd23ac9ea359f3b9215eca3ceb34e08e29b1f704fa198468cae08f9f0016e..."
          },
          "data": {
            "name": "Hook 1",
            "services": [{
              "id": "0x1512258c1a082a1148e655cf4abf13b914e31e7e485191c2b6b5ee466e03c951",
              "name": "Service 1"
            }],
            "settings": {
              "object": "event",
              "action": "create",
              "send": "id",
              "rules": {
                "events": [{
                  "field": "object.data.tag",
                  "operator": "equal",
                  "value": "tag1"
                }]
              }
            }
          },
          "receipt": {
            "received_at": 1579967810
          }
        }],
        "meta": {
          "code": 200,
          "message": "Ok"
        },
        "pagination": {
          "limit": 30,
          "skip": 30,
          "total": 120,
          "next": "eyJyZWNlaXB0LnJlY2VpdmVkX2F0IjoxNjE1MjQ4ODEyfQ==",
          "previous": "eyJyZWNlaXB0LnJlY2VpdmVkX2F0IjoxNjE1MjQ4ODEyfQ==",
          "hasNext": true,
          "hasPrevious": false
        }
      }

    },

    "parameters": {

      "id-hook": {
        "name": "id",
        "description": "ID of an hook",
        "in": "path",
        "schema": {
          "$ref": "base.json#/components/schemas/id"
        }
      }

    },

    "responses": {

      "Hook": {
        "description": "Hook result",
        "content": {
          "application/json": {
            "schema": {
              "$ref": "#/components/schemas/Hook"
            },
            "example": {
              "$ref": "#/components/examples/Hook"
            }
          }
        }
      },
      "Hooks": {
        "description": "Hook results",
        "content": {
          "application/json": {
            "schema": {
              "$ref": "#/components/schemas/Hooks"
            },
            "example": {
              "$ref": "#/components/examples/Hooks"
            }
          }
        }
      }

    },

    "requestBodies": {

      "search-hook": {
        "description": "Search query",
        "content": {
          "application/json": {
            "schema": {
              "$ref": "#/components/schemas/query-hook"
            },
            "example": {
              "$ref": "#/components/examples/query-hook"
            }
          }
        }
      },
      "Hook-Create": {
        "description": "Hook create",
        "content": {
          "application/json": {
            "schema": {
              "$ref": "#/components/schemas/Hook-Create"
            },
            "example": {
              "$ref": "#/components/examples/Hook-Create"
            }
          }
        }
      },
      "Hook-update": {
        "description": "Hook update",
        "content": {
          "application/json": {
            "schema": {
              "$ref": "#/components/schemas/Hook-data"
            },
            "example": {
              "$ref": "#/components/examples/Hook-update"
            }
          }
        }
      }

    }

  }

}
