{
  "components": {

    "schemas": {

      "query-permission": {
        "type": "object",
        "properties": {
          "query": {
            "type": "object",
            "properties": {
              "permissions": {
                "type": "array",
                "items": {
                  "$ref": "base.json#/components/schemas/query-operator"
                },
                "minItems": 0
              }
            }
          },
          "limit": {
            "$ref": "base.json#/components/schemas/limit"
          },
          "skip": {
            "$ref": "base.json#/components/schemas/skip"
          }
        }
      },
      "Permission-data-actions": {
        "type": "array",
        "items": {
          "type": "string",
          "enum": [
            "asset:GetObject",
            "asset:PutObject",
            "asset:UpdateObject",

            "event:GetObject",
            "event:GetObject",

            "document:GetObject",
            "document:GetObject",

            "organization:GetObject:Basic",
            "organization:PutObject:Basic",

            "organization:GetObject:Advance",
            "organization:PutObject:Advance"
          ]
        }
      },
      "Permission-data-resources": {
        "$ref": "base.json#/components/schemas/filters"
      },
      "Permission-data-routes": { "type": "object" },
      "Permission-data-id": { "type": "id", "description": "Custom ID assigned to a permission, related to integrated app permission is from. Used so it can be automatically updated on integrated app update." },
      "Permission-data-app": {
          "type": "object" ,
            "properties": {
                "id": {"type": "string", "description": "Organization app ID"},
                "name": {"type": "string", "description": "Organization app name"}
            },
            "required": ["id"]
        },
      "Permission-data-users": {
          "type": "object" ,
            "properties": {
                "api_keys": {
                    "type": "array",
                    "items": {
                        "type": "object" ,
                        "properties": {
                            "id": {"type": "string", "description": "API key ID"},
                            "name": {"type": "string", "description": "API key name"}
                        },
                        "required": ["id"]
                    }
                },
                "api_keys_only": {"type": "boolean"},
                "organizations": {
                    "type": "array",
                    "items": {
                        "type": "object" ,
                        "properties": {
                            "id": {"type": "string", "description": "Organization ID"},
                            "name": {"type": "string", "description": "Organization name"},
                            "all": {"type": "boolean"},
                            "teams": {
                                "type": "array",
                                "items": {
                                    "type": "object" ,
                                    "properties": {
                                        "id": {"type": "string", "description": "Team ID"},
                                        "name": {"type": "string", "description": "Team name"}
                                    },
                                    "required": ["id"]
                                }
                            },
                            "accounts": {
                                "type": "array",
                                "items": {
                                    "type": "object" ,
                                    "properties": {
                                        "id": {"type": "string", "description": "Account ID"},
                                        "full_name": {"type": "string", "description": "Account full name"}
                                    },
                                    "required": ["id"]
                                }
                            }
                        },
                        "required": ["id"]
                    }
                }
            },
            "required": ["api_keys_only", "api_keys", "organizations"]
      },
      "Permission-data": {
        "type": "object",
        "properties": {
          "name": {
            "type": "string"
          },
          "description": {
            "type": "string"
          },
          "actions": {
            "$ref": "#/components/schemas/Permission-data-actions"
          },
          "resources": {
            "$ref": "#/components/schemas/Permission-data-resources"
          },
          "app": {
            "$ref": "#/components/schemas/Permission-data-app"
          },
          "users": {
            "$ref": "#/components/schemas/Permission-data-users"
          },
          "routes": {
            "$ref": "#/components/schemas/Permission-data-routes"
          },
          "id": {
            "$ref": "#/components/schemas/Permission-data-id"
          }
        },
        "required": [
          "name"
        ]
      },
      "Permission-Create": {
        "type": "object",
        "properties": {
          "object": {
            "$ref": "base.json#/components/schemas/object-simple"
          },
          "data": {
            "$ref": "#/components/schemas/Permission-data"
          }
        },
        "required": [
          "object",
          "data"
        ]
      },
      "Permission": {
        "type": "object",
        "properties": {
          "id": {
            "$ref": "base.json#/components/schemas/id"
          },
          "object": {
            "$ref": "base.json#/components/schemas/object-simple"
          },
          "data": {
            "$ref": "#/components/schemas/Permission-data"
          },
          "receipt": {
            "$ref": "base.json#/components/schemas/receipt"
          },
          "proof_locations": {
            "$ref": "base.json#/components/schemas/proof_locations"
          }
        },
        "required": [
          "id",
          "object",
          "data",
          "receipt",
          "proof_locations"
        ],
        "additionalProperties": false
      },
      "Permission-update": {
        "type": "object",
        "properties": {
          "data": {
            "type": "object",
            "properties": {
              "name": {
                "type": "string"
              },
              "description": {
                "type": "string"
              },
              "actions": {
                "$ref": "#/components/schemas/Permission-data-actions"
              },
              "resources": {
                "$ref": "#/components/schemas/Permission-data-resources"
              },
                "users": {
                    "$ref": "#/components/schemas/Permission-data-users"
                },
                "routes": {
                    "$ref": "#/components/schemas/Permission-data-routes"
                }
            },
            "additionalProperties": false
          }
        },
        "additionalProperties": false,
        "required": [
          "data"
        ]
      },
      "Permissions": {
        "type": "object",
        "properties": {
          "response": {
            "type": "array",
            "minItems": 0,
            "maxItems": 50,
            "items": {
              "$ref": "#/components/schemas/Permission"
            }
          },
          "meta": {
            "$ref": "base.json#/components/schemas/meta-response"
          },
          "pagination": {
            "$ref": "base.json#/components/schemas/pagination-response"
          }
        }
      },
      "Permissions-me": {
        "type": "object",
        "properties": {
          "response": {
            "type": "array",
            "minItems": 0,
            "maxItems": 50,
            "items": {
              "$ref": "#/components/schemas/Permission"
            }
          },
          "meta": {
            "$ref": "base.json#/components/schemas/meta-response"
          }
        }
      }

    },
    "examples": {

      "query-permission": {
        "query": {
          "permissions": [{
            "field": "object.data.name",
            "operator": "starts-with",
            "value": "Permission"
          }]
        },
        "limit": 45,
        "skip": 30
      },
      "Permission-Create": {
        "object": {
          "meta": {
            "created_by": "0x678b3c5090B25b3a63120CF0218750886e37A96E"
          },
          "signature": "0xed4f59dbd23ac9ea359f3b9215eca3ceb34e08e29b1f704fa198468cae08f9f0016e..."
        },
        "data": {
          "name": "Asset view, not from account-5 and whos info event contains tag1 in tag property",
          "actions": [
            "asset:GetObject"
          ],
          "resources": {
            "assets": [{
              "field": "object.meta.created_by",
              "operator": "not-equal",
              "value": "0x8752F61635543a870826D9F4CA20a9D1F3934079"
            }],
            "events": [{
              "field": "object.data.tag",
              "operator": "equal",
              "value": "tag1"
            }]
          },
          "users": {
              "api_keys": [
                  { "id": "0x123...", "name": "API key" }
              ],
              "api_keys_only": false,
              "organizations": [
                  {
                      "id": "0x123...",
                      "name": "Organization 1",
                      "all": false,
                      "teams": [],
                      "accounts": [
                          {"id": "0x123...", "full_name": "John Doe"}
                      ]
                  }
              ]
          }
        }
      },
      "Permission": {
        "response": {
          "id": "0x1512258c1a082a1148e655cf4abf13b914e31e7e485191c2b6b5ee466e03c951",
          "object": {
              "meta": {
                    "created_by": "0x8752F61635543a870826D9F4CA20a9D1F3934079",
                    "timestamp": "2020-02-10T19:16:13Z"
                },
                "signature": "0xed4f59dbd23ac9ea359f3b9215eca3ceb34e08e29b1f704fa198468cae08f9f0016e..."
          },
          "data": {
            "name": "Asset view, not from account-5 and whos info event contains tag1 in tag property",
            "actions": [
              "asset:GetObject"
            ],
            "resources": {
              "assets": [{
                "field": "object.meta.created_by",
                "operator": "not-equal",
                "value": "0x8752F61635543a870826D9F4CA20a9D1F3934079"
              }],
              "events": [{
                "field": "object.data.tag",
                "operator": "equal",
                "value": "tag1"
              }]
            },
            "users": {
                "api_keys": [
                    { "id": "0x123...", "name": "API key" }
                ],
                "api_keys_only": false,
                "organizations": [
                    {
                        "id": "0x123...",
                        "name": "Organization 1",
                        "all": false,
                        "teams": [],
                        "accounts": [
                            {"id": "0x123...", "full_name": "John Doe"}
                        ]
                    }
                ]
            }
          },
          "receipt": {
            "received_at": 1579967810
          },
          "proof_locations": [
            {
                "type": "bundle",
                "bundle": {
                    "id": "0x1512258c1a082a1148e655cf4abf13b914e31e7e485191c2b6b5ee466e03c951"
                },
                "strategy": {
                    "id": "0x1512258c1a082a1148e655cf4abf13b914e31e7e485191c2b6b5ee466e03c951",
                    "name": "Default all global"
                }
            }
          ]
        },
        "meta": {
          "code": 200,
          "message": "Ok"
        }
      },
      "Permission-update": {
        "data": {
          "users": {
              "api_keys": [
                  { "id": "0x123...", "name": "API key 2" }
              ],
              "api_keys_only": false,
              "organizations": [
                  {
                      "id": "0x123...",
                      "name": "Organization 2",
                      "all": false,
                      "teams": [],
                      "accounts": [
                          {"id": "0x123...", "full_name": "John Doe"}
                      ]
                  }
              ]
          }
        }
      },
      "Permissions": {
        "response": [{
          "id": "0x1512258c1a082a1148e655cf4abf13b914e31e7e485191c2b6b5ee466e03c951",
          "object": {
              "meta": {
                    "created_by": "0x8752F61635543a870826D9F4CA20a9D1F3934079",
                    "timestamp": "2020-02-10T19:16:13Z"
                },
                "signature": "0xed4f59dbd23ac9ea359f3b9215eca3ceb34e08e29b1f704fa198468cae08f9f0016e..."
          },
          "data": {
            "name": "Asset view, not from account-5 and whos info event contains tag1 in tag property",
            "actions": [
              "asset:GetObject"
            ],
            "resources": {
              "assets": [{
                "field": "object.meta.created_by",
                "operator": "not-equal",
                "value": "0x8752F61635543a870826D9F4CA20a9D1F3934079"
              }],
              "events": [{
                "field": "object.data.tag",
                "operator": "equal",
                "value": "tag1"
              }]
            },
            "users": {
                "api_keys": [
                    { "id": "0x123...", "name": "API key" }
                ],
                "api_keys_only": false,
                "organizations": [
                    {
                        "id": "0x123...",
                        "name": "Organization 1",
                        "all": false,
                        "teams": [],
                        "accounts": [
                            {"id": "0x123...", "full_name": "John Doe"}
                        ]
                    }
                ]
            }
          },
          "receipt": {
            "received_at": 1579967810
          },
          "proof_locations": [
            {
                "type": "bundle",
                "bundle": {
                    "id": "0x1512258c1a082a1148e655cf4abf13b914e31e7e485191c2b6b5ee466e03c951"
                },
                "strategy": {
                    "id": "0x1512258c1a082a1148e655cf4abf13b914e31e7e485191c2b6b5ee466e03c951",
                    "name": "Default all global"
                }
            }
          ]
        }],
        "meta": {
          "code": 200,
          "message": "Ok"
        },
        "pagination": {
          "limit": 30,
          "skip": 30,
          "total": 120,
          "next": "eyJyZWNlaXB0LnJlY2VpdmVkX2F0IjoxNjE1MjQ4ODEyfQ==",
          "previous": "eyJyZWNlaXB0LnJlY2VpdmVkX2F0IjoxNjE1MjQ4ODEyfQ==",
          "hasNext": true,
          "hasPrevious": false
        }
      },
      "Permissions-me": {
        "response": [{
          "id": "0x1512258c1a082a1148e655cf4abf13b914e31e7e485191c2b6b5ee466e03c951",
          "object": {
              "meta": {
                    "created_by": "0x8752F61635543a870826D9F4CA20a9D1F3934079",
                    "timestamp": "2020-02-10T19:16:13Z"
                },
                "signature": "0xed4f59dbd23ac9ea359f3b9215eca3ceb34e08e29b1f704fa198468cae08f9f0016e..."
          },
          "data": {
            "name": "Asset view, not from account-5 and whos info event contains tag1 in tag property",
            "actions": [
              "asset:GetObject"
            ],
            "resources": {
              "assets": [{
                "field": "object.meta.created_by",
                "operator": "not-equal",
                "value": "0x8752F61635543a870826D9F4CA20a9D1F3934079"
              }],
              "events": [{
                "field": "object.data.tag",
                "operator": "equal",
                "value": "tag1"
              }]
            },
            "users": {
                "api_keys": [
                    { "id": "0x123...", "name": "API key" }
                ],
                "api_keys_only": false,
                "organizations": [
                    {
                        "id": "0x123...",
                        "name": "Organization 1",
                        "all": false,
                        "teams": [],
                        "accounts": [
                            {"id": "0x123...", "full_name": "John Doe"}
                        ]
                    }
                ]
            }
          },
          "receipt": {
            "received_at": 1579967810
          }
        }],
        "meta": {
          "code": 200,
          "message": "Ok"
        }
      }
    },

    "parameters": {

      "id-permission": {
        "name": "id",
        "description": "ID of an permission",
        "in": "path",
        "schema": {
          "$ref": "base.json#/components/schemas/id"
        }
      }

    },

    "responses": {

      "Permission": {
        "description": "Permission result",
        "content": {
          "application/json": {
            "schema": {
              "$ref": "#/components/schemas/Permission"
            },
            "example": {
              "$ref": "#/components/examples/Permission"
            }
          }
        }
      },
      "Permissions": {
        "description": "Permission results",
        "content": {
          "application/json": {
            "schema": {
              "$ref": "#/components/schemas/Permissions"
            },
            "example": {
              "$ref": "#/components/examples/Permissions"
            }
          }
        }
      },
      "Permissions-me": {
        "description": "Permission results",
        "content": {
          "application/json": {
            "schema": {
              "$ref": "#/components/schemas/Permissions-me"
            },
            "example": {
              "$ref": "#/components/examples/Permissions-me"
            }
          }
        }
      }

    },

    "requestBodies": {

      "search-permission": {
        "description": "Search query",
        "content": {
          "application/json": {
            "schema": {
              "$ref": "#/components/schemas/query-permission"
            },
            "example": {
              "$ref": "#/components/examples/query-permission"
            }
          }
        }
      },
      "Permission-Create": {
        "description": "Permission create",
        "content": {
          "application/json": {
            "schema": {
              "$ref": "#/components/schemas/Permission-Create"
            },
            "example": {
              "$ref": "#/components/examples/Permission-Create"
            }
          }
        }
      },
      "Permission-update": {
        "description": "Permission update",
        "content": {
          "application/json": {
            "schema": {
              "$ref": "#/components/schemas/Permission-update"
            },
            "example": {
              "$ref": "#/components/examples/Permission-update"
            }
          }
        }
      }

    }

  }

}
