{
  "components": {

    "schemas": {

      "query-services": {
        "type": "object",
        "properties": {
          "query": {
            "type": "object",
            "properties": {
              "services": {
                "type": "array",
                "items": {
                  "$ref": "base.json#/components/schemas/query-operator"
                },
                "minItems": 0
              }
            }
          },
          "limit": {
            "$ref": "base.json#/components/schemas/limit"
          },
          "skip": {
            "$ref": "base.json#/components/schemas/skip"
          }
        }
      },
      "Service-data-url": {
        "type": "object",
        "properties": {
          "rest": {
            "type": "string"
          },
          "rpc": {
            "type": "string"
          }
        },
        "additionalProperties": false
      },
      "Service-data-content_type": {
        "type": "string",
        "enum": ["application/json", "multipart/form-data", "application/x-www-form-urlencoded", "text/plain"]
      },
      "Service-data-custom": {
        "type": "object",
        "properties": {
          "header": {
            "type": "object"
          },
          "body": {
            "type": "object"
          }
        },
        "additionalProperties": false
      },
      "Service-data": {
        "type": "object",
        "properties": {
          "name": {
            "type": "string"
          },
          "description": {
            "type": "string"
          },
          "active": {
            "type": "boolean"
          },
          "private": {
            "type": "boolean"
          },
          "url": {
            "$ref": "#/components/schemas/Service-data-url"
          },
          "content_type": {
            "$ref": "#/components/schemas/Service-data-content_type"
          },
          "custom": {
            "$ref": "#/components/schemas/Service-data-custom"
          }
        },
        "required": [
          "name",
          "url"
        ]
      },
      "Service-Create": {
        "type": "object",
        "properties": {
          "object": {
            "$ref": "base.json#/components/schemas/object-simple"
          },
          "data": {
            "$ref": "#/components/schemas/Service-data"
          }
        },
        "required": [
          "object",
          "data"
        ]
      },
      "Service": {
        "type": "object",
        "properties": {
          "id": {
            "$ref": "base.json#/components/schemas/id"
          },
          "object": {
              "type": "object",
              "properties": {
                  "meta": {
                        "$ref": "base.json#/components/schemas/object-meta-simple"
                    },
                    "signature": {
                        "$ref": "base.json#/components/schemas/signature"
                    }
              },
              "additionalProperties": false
          },
          "data": {
            "$ref": "#/components/schemas/Service-data"
          },
          "receipt": {
            "$ref": "base.json#/components/schemas/receipt"
          }
        },
        "required": [
          "id",
          "object",
          "data",
          "receipt"
        ],
        "additionalProperties": false
      },
      "Services": {
        "type": "object",
        "properties": {
          "response": {
            "type": "array",
            "minItems": 0,
            "maxItems": 50,
            "items": {
              "$ref": "#/components/schemas/Service"
            }
          },
          "meta": {
            "$ref": "base.json#/components/schemas/meta-response"
          },
          "pagination": {
            "$ref": "base.json#/components/schemas/pagination-response"
          }
        }
      }

    },
    "examples": {

      "query-services": {
        "query": {
          "services": [{
            "field": "data.name",
            "operator": "starts-with",
            "value": "Service 1"
          }]
        },
        "limit": 45,
        "skip": "30"
      },
      "Service": {
        "response": {
          "id": "0x1512258c1a082a1148e655cf4abf13b914e31e7e485191c2b6b5ee466e03c951",
          "object": {
              "meta": {
                    "created_by": "0x8752F61635543a870826D9F4CA20a9D1F3934079",
                    "timestamp": "2020-02-10T19:16:13Z"
                },
                "signature": "0xed4f59dbd23ac9ea359f3b9215eca3ceb34e08e29b1f704fa198468cae08f9f0016e..."
          },
          "data": {
            "name": "Service 1",
            "url": {
              "rest": "http://server.com"
            },
            "active": true,
            "private": false
          },
          "receipt": {
            "received_at": 1579967810
          }
        },
        "meta": {
          "code": 200,
          "message": "Ok"
        }
      },
      "Service-Create": {
        "object": {
          "meta": {
            "created_by": "0x678b3c5090B25b3a63120CF0218750886e37A96E"
          },
          "signature": "0xed4f59dbd23ac9ea359f3b9215eca3ceb34e08e29b1f704fa198468cae08f9f0016e..."
        },
        "data": {
          "name": "Service 1",
          "url": {
            "rest": "http://server.com"
          },
          "active": true,
          "private": false
        }
      },
      "Service-update": {
        "data": {
          "active": false
        }
      },
      "Services": {
        "response": [{
          "id": "0x1512258c1a082a1148e655cf4abf13b914e31e7e485191c2b6b5ee466e03c951",
          "object": {
              "meta": {
                    "created_by": "0x8752F61635543a870826D9F4CA20a9D1F3934079",
                    "timestamp": "2020-02-10T19:16:13Z"
                },
                "signature": "0xed4f59dbd23ac9ea359f3b9215eca3ceb34e08e29b1f704fa198468cae08f9f0016e..."
          },
          "data": {
            "name": "Service 1",
            "url": {
              "rest": "http://server.com"
            },
            "active": true,
            "private": false
          },
          "receipt": {
            "received_at": 1579967810
          }
        }],
        "meta": {
          "code": 200,
          "message": "Ok"
        },
        "pagination": {
          "limit": 30,
          "skip": 30,
          "total": 120,
          "next": "eyJyZWNlaXB0LnJlY2VpdmVkX2F0IjoxNjE1MjQ4ODEyfQ==",
          "previous": "eyJyZWNlaXB0LnJlY2VpdmVkX2F0IjoxNjE1MjQ4ODEyfQ==",
          "hasNext": true,
          "hasPrevious": false
        }
      }

    },
    "parameters": {

      "id-service": {
        "name": "id",
        "description": "ID of a service",
        "in": "path",
        "schema": {
          "$ref": "base.json#/components/schemas/id"
        }
      }

    },

    "responses": {

      "Service": {
        "description": "Service result",
        "content": {
          "application/json": {
            "schema": {
              "$ref": "#/components/schemas/Service"
            },
            "example": {
              "$ref": "#/components/examples/Service"
            }
          }
        }
      },
      "Services": {
        "description": "Service results",
        "content": {
          "application/json": {
            "schema": {
              "$ref": "#/components/schemas/Services"
            },
            "example": {
              "$ref": "#/components/examples/Services"
            }
          }
        }
      }

    },
    "requestBodies": {

      "search-services": {
        "description": "Search query",
        "content": {
          "application/json": {
            "schema": {
              "$ref": "#/components/schemas/query-services"
            },
            "example": {
              "$ref": "#/components/examples/query-services"
            }
          }
        }
      },
      "Service-Create": {
        "description": "Service create",
        "content": {
          "application/json": {
            "schema": {
              "$ref": "#/components/schemas/Service-Create"
            },
            "example": {
              "$ref": "#/components/examples/Service-Create"
            }
          }
        }
      },
      "Service-update": {
        "description": "Service update",
        "content": {
          "application/json": {
            "schema": {
              "$ref": "#/components/schemas/Service-data"
            },
            "example": {
              "$ref": "#/components/examples/Service-update"
            }
          }
        }
      }

    }

  }
}
